Tid, Siste 24 timer 
00:00,17.9610515685
01:00,8.81116166781
02:00,16.8162861663
03:00,13.826635972
04:00,11.2517548238
05:00,1.37098159909
06:00,14.7782895818
07:00,14.92129784
08:00,16.5243976368
09:00,9.36245721644
10:00,15.3261862255
11:00,14.3611150023
12:00,4.00606947109
13:00,6.06422334293
14:00,4.95456794603
15:00,16.535871631
16:00,18.5833403452
17:00,18.1779555595
18:00,13.5623683701
19:00,8.48758367477
20:00,16.8519171432
21:00,2.05062739848
22:00,1.69196144436
23:00,7.83000861811