Tid, Siste 24 timer 
00:00,1.21051402829
01:00,5.24794073926
02:00,0.753850934511
03:00,9.42000329661
04:00,5.72518315944
05:00,10.8314155102
06:00,8.53876961132
07:00,5.24710848657
08:00,14.6454511316
09:00,12.9197396672
10:00,1.82869546761
11:00,12.6611941362
12:00,1.67167950507
13:00,3.99024921004
14:00,9.66154370162
15:00,7.06024061648
16:00,4.53940776778
17:00,14.2471793424
18:00,3.119063705
19:00,8.69812181024
20:00,8.93120178064
21:00,2.6947460381
22:00,7.78058449296
23:00,19.669134585